…
1. (a) What's the minimum life expectancy for each continent and each year? (b) Add the corresponding country to the tibble, too. (c) Arrange by min life expectancy.


```r
gapminder %>% 
  group_by(continent, year) %>% 
  summarize(min_life = min(lifeExp),
            country = country[lifeExp == min_life]) %>% 
  arrange(min_life)
```

```
## # A tibble: 60 x 4
## # Groups:   continent [5]
##    continent  year min_life country     
##    <fct>     <int>    <dbl> <fct>       
##  1 Africa     1992     23.6 Rwanda      
##  2 Asia       1952     28.8 Afghanistan 
##  3 Africa     1952     30   Gambia      
##  4 Asia       1957     30.3 Afghanistan 
##  5 Asia       1977     31.2 Cambodia    
##  6 Africa     1957     31.6 Sierra Leone
##  7 Asia       1962     32.0 Afghanistan 
##  8 Africa     1962     32.8 Sierra Leone
##  9 Asia       1967     34.0 Afghanistan 
## 10 Africa     1967     34.1 Sierra Leone
## # ... with 50 more rows
```
…
```r
tb_iris <- as_tibble(iris)
print(tb_iris)
```

```
## # A tibble: 150 x 5
##    Sepal.Length Sepal.Width Petal.Length Petal.Width Species
##           <dbl>       <dbl>        <dbl>       <dbl> <fct>  
##  1          5.1         3.5          1.4         0.2 setosa 
##  2          4.9         3            1.4         0.2 setosa 
##  3          4.7         3.2          1.3         0.2 setosa 
##  4          4.6         3.1          1.5         0.2 setosa 
##  5          5           3.6          1.4         0.2 setosa 
##  6          5.4         3.9          1.7         0.4 setosa 
##  7          4.6         3.4          1.4         0.3 setosa 
##  8          5           3.4          1.5         0.2 setosa 
##  9          4.4         2.9          1.4         0.2 setosa 
## 10          4.9         3.1          1.5         0.1 setosa 
## # ... with 140 more rows
```
